Frequency,Original,JPEG,Regression,GAN
0,0.9991862,0.98535156,0.9991862,0.99934894
1,0.9868164,0.7784831,0.97786456,0.9790039
2,0.98063153,0.6896159,0.95670575,0.9713542
3,0.9741211,0.6738281,0.9373372,0.9632161
4,0.9713542,0.4695638,0.89404297,0.9635417
5,0.95996094,0.37923178,0.859375,0.96240234
6,0.9501953,0.2874349,0.80810547,0.95426434
7,0.9352214,0.2664388,0.75716144,0.95621747
8,0.92057294,0.2133789,0.6873372,0.9401042
9,0.8984375,0.19921875,0.61246747,0.9427083
10,0.8688151,0.17350261,0.5242513,0.92626953
11,0.82405597,0.13476562,0.41861978,0.8904622
12,0.75439453,0.10904948,0.3154297,0.88688153
13,0.632487,0.06363932,0.18782552,0.7426758
14,0.42171225,0.029622396,0.08024088,0.7288411
