Frequency,Original,JPEG,Regression,GAN
0,0.9990741,0.93222225,0.99740744,0.99814814
1,0.9687037,0.46185187,0.9401852,0.95148146
2,0.9496296,0.34851852,0.8361111,0.91462964
3,0.93703705,0.4074074,0.7412963,0.8862963
4,0.92444444,0.22351852,0.61796296,0.912037
5,0.92388886,0.24055555,0.56203705,0.94185185
6,0.9164815,0.15037037,0.51166666,0.8988889
7,0.9159259,0.13259259,0.4587037,0.9253704
8,0.8962963,0.07092593,0.37185186,0.85907406
9,0.88685185,0.072037034,0.26314816,0.8744444
10,0.86,0.056851853,0.18592593,0.82648146
11,0.83074075,0.032407407,0.12055556,0.8601852
12,0.78555554,0.031111112,0.067777775,0.83685184
13,0.7040741,0.014259259,0.036296297,0.5890741
14,0.5468519,0.0025925925,0.011111111,0.47444445
