Quality,JPEG,ARCNN,MWCNN,IDCN,DMCNN,OURS
10,25.72/23.44/0.748,-,-,-,-,27.67/27.34/0.810
20,28.01/25.57/0.833,-,-,-,-,29.86/29.26/0.875
30,29.31/26.85/0.869,-,-,-,-,31.11/30.34/0.902
40,30.21/27.76/0.890,-,-,-,-,31.98/31.06/0.918
50,30.96/28.59/0.905,-,-,-,-,32.70/31.72/0.929
60,31.71/29.43/0.917,-,-,-,-,33.43/32.37/0.938
70,32.73/30.60/0.932,-,-,-,-,34.40/33.23/0.949
80,34.21/32.45/0.948,-,-,-,-,35.73/34.52/0.962
90,36.88/35.64/0.970,-,-,-,-,36.48/35.41/0.973
100,54.76/44.15/0.999,-,-,-,-,40.76/37.47/0.989
