Quality,JPEG,ARCNN,MWCNN,IDCN,DMCNN,OURS
10,25.72 / 23.44 / 0.748,26.83 / 26.65 / 0.783,27.18 / 26.93 / 0.794,\underline{27.61} / \underline{27.22} / \underline{0.805},27.16 / 26.95 / 0.799,\textbf{27.69 / 27.36 / 0.810}
20,28.01 / 25.57 / 0.833,29.00 / 28.53 / 0.853,29.45 / 28.96 / 0.866,\textbf{29.90} / \underline{29.20} / \underline{0.873},29.35 / 28.84 / 0.866,\underline{29.89} / \textbf{29.29 / 0.876}
30,29.31 / 26.85 / 0.869,30.31 / 29.85 / 0.887,\underline{30.71} / \underline{30.09} / \underline{0.895},-,-,\textbf{31.15 / 30.37 / 0.903}
