Quality,JPEG,ARCNN,MWCNN,IDCN,DMCNN,OURS
10,32.08 / 29.92 / 0.856,31.13 / 30.97 / 0.794,34.12 / 34.06 / 0.884,32.50 / 32.42 / 0.826,\underline{34.18} / \underline{34.15} / \underline{0.874},\textbf{34.73 / 34.58 / 0.896}
20,35.04 / 32.72 / 0.905,32.62 / 32.31 / 0.821,\underline{36.56} / \underline{36.44} / 0.902,34.30 / 34.18 / 0.851,35.93 / 35.79 / \underline{0.918},\textbf{37.12 / 36.88 / 0.924}
30,36.66 / 34.22 / 0.927,33.79 / 33.52 / 0.841,\underline{38.20} / \underline{37.96} / \underline{0.927},-,-,\textbf{38.43 / 38.05 / 0.938}
